id;loai_benh;bakb_id;don_vi_id;benh_nhan_id;dot_dieu_tri_id;thong_tin_khoa_id;thong_tin_kham_benh_id;benh_ly_id
1;false;1;1;1;1;1;1;1
2;true;2;2;2;2;2;2;2
3;true;3;3;3;3;3;3;3
4;true;4;4;4;4;4;4;4
5;true;5;5;5;5;5;5;5
6;false;6;6;6;6;6;6;6
7;true;7;7;7;7;7;7;7
8;false;8;8;8;8;8;8;8
9;true;9;9;9;9;9;9;9
10;false;10;10;10;10;10;10;10
