id;co_bao_hiem;co_ket_qua;da_thanh_toan;da_thanh_toan_chenh_lech;da_thuc_hien;don_gia;don_gia_bhyt;don_gia_khong_bhyt;ghi_chu_chi_dinh;mo_ta;mo_ta_xm_15;nguoi_chi_dinh_id;nguoi_chi_dinh;so_lan_chup;so_luong;so_luong_co_film;so_luong_co_film_1318;so_luong_co_film_1820;so_luong_co_film_2025;so_luong_co_film_2430;so_luong_co_film_2530;so_luong_co_film_3040;so_luong_film;ten;thanh_tien;thanh_tien_bhyt;thanh_tien_khong_bhyt;thoi_gian_chi_dinh;thoi_gian_tao;tien_ngoai_bhyt;thanh_toan_chenh_lech;ty_le_thanh_toan;ma_dung_chung;dich_vu_yeu_cau;nam;don_vi_id;benh_nhan_id;bakb_id;phieucd_id;phong_id;cdha_id
1;false;true;95232;64486;44901;20829;66736;95454;International forecast Metal;ivory Synchronised;radical Guinea Franc;37701;Metical Licensed Fresh Soap;67232;60139;71044;38774;69648;32023;76627;68678;9415;83466;Generic Open-architected Auto Loan Account;17220;60097;18915;2020-05-05;2020-05-06;38701;true;89944;transmitting Azerbaijanian Manat;true;95801;1;1;1;1;1;1
2;false;true;20192;55729;17636;55964;17928;77523;Isle;microchip cross-platform;South Dakota Handmade Soft Cheese Kyrgyz Republic;67685;Corporate black;23974;91292;77343;75056;69507;80847;25047;54234;66611;29129;transmitting matrices withdrawal;5820;62340;86817;2020-05-05;2020-05-05;23838;false;57114;XSS Minnesota;false;99704;2;2;2;2;2;2
3;false;true;35861;93895;57474;81930;10734;87434;e-markets lavender copying;parse Checking Account payment;customer loyalty Internal protocol;50244;Director Future;80758;85726;42010;61324;34946;52162;75884;97875;89879;45925;Falkland Islands (Malvinas);27456;5210;45885;2020-05-05;2020-05-05;74691;true;27934;Personal Loan Account compress functionalities;false;60723;3;3;3;3;3;3
4;true;true;68767;54551;2003;38201;65763;9426;Intelligent Executive;Handmade Hryvnia;Intelligent;61458;Australian Dollar;54325;97213;69186;580;11250;89926;9486;69091;9137;81149;Quality invoice;38449;9043;62173;2020-05-05;2020-05-05;88855;true;61163;Decentralized Wooden Brand;true;73784;4;4;4;4;4;4
5;true;true;32349;55209;63149;4355;38070;97373;Cotton Chips;USB Baby SDD;Fantastic;98529;Shirt primary;89540;30727;75897;97009;18313;17131;92835;36265;24950;94173;Armenia alliance Administrator;4726;81184;24159;2020-05-05;2020-05-05;86729;true;18746;payment Digitized;false;89773;5;5;5;5;5;5
6;true;true;74986;19767;18185;57111;23880;45178;redundant Product;JBOD;District;68141;payment driver Kids;15864;76655;63761;95682;5560;45326;44283;38914;65340;26010;SSL PCI back-end;26022;89400;92444;2020-05-06;2020-05-05;61098;true;5507;Gloves;false;27768;6;6;6;6;6;6
7;false;true;5590;27984;36030;24816;79834;96644;Beauty Gorgeous;Synchronised lime;RSS;17950;Credit Card Account Kansas;32873;59944;60378;45404;93551;31526;9907;23944;71709;82404;Checking Account European Unit of Account 17(E.U.A.-17) Developer;46686;15708;77442;2020-05-05;2020-05-05;22310;true;415;Small;true;89382;7;7;7;7;7;7
8;false;false;80285;27589;91267;69820;97923;3649;parsing;Credit Card Account feed evolve;Total client-server Wooden;38825;Engineer JSON Future-proofed;81333;55800;86129;65295;72136;62799;23826;31228;36247;63037;Savings Account bypass;92197;42579;28808;2020-05-05;2020-05-05;98914;false;44261;Facilitator Pants;false;41985;8;8;8;8;8;8
9;false;true;86032;27050;53452;4578;54643;42855;Future feed;Belgium wireless Bacon;panel Legacy;99334;Ohio;63205;32438;35509;49030;75050;65470;43972;2117;22800;47071;Senior;54520;32793;8826;2020-05-06;2020-05-05;92762;false;34333;Keyboard;true;38938;9;9;9;9;9;9
10;true;false;1895;26629;46000;74195;79498;86434;Digitized Factors;bi-directional Realigned synthesize;orchestration orange;10672;USB;94466;50556;64079;44016;83558;33675;51386;39382;5646;83637;Manager invoice turn-key;65432;82945;72555;2020-05-05;2020-05-05;93185;false;51286;markets synergies;false;64337;10;10;10;10;10;10
