id;co_bao_hiem;co_ket_qua;da_thanh_toan;da_thanh_toan_chenh_lech;da_thuc_hien;don_gia;don_gia_bhyt;don_gia_khong_bhyt;ghi_chu_chi_dinh;mo_ta;nguoi_chi_dinh_id;so_luong;ten;thanh_tien;thanh_tien_bhyt;thanh_tien_khong_bhyt;thoi_gian_chi_dinh;thoi_gian_tao;tien_ngoai_bhyt;thanh_toan_chenh_lech;ty_le_thanh_toan;ma_dung_chung;dich_vu_yeu_cau;phieucdxn_bakb_benh_nhan_id;phieucdxn_bakb_don_vi_id;phieucdxn_bakb_benh_nhan_id;phieucdxn_bakb_don_vi_id;phong_id;xet_nghiem_id
61030;false;true;5120;53134;4259;1796;42459;63938;Handmade Fresh Salad;Security Interactions Home;83347;20842;Unbranded;35183;63692;13228;2020-05-05;2020-05-05;36421;true;44024;Court;false;64769;79048;64769;79048;68006;56195
41772;false;false;42404;66536;39743;84101;22286;50614;Customer;Fantastic Netherlands Antilles New Zealand;51079;69128;Circle;19971;24674;35322;2020-05-05;2020-05-06;66449;false;41259;Rubber Executive Ergonomic;true;60224;67777;60224;67777;5771;69883
51141;false;false;89976;80658;86628;55971;58825;72169;AI;Pizza Home Loan Account black;25680;93373;synthesize Money Market Account;29301;13163;40037;2020-05-06;2020-05-05;14265;true;54484;cross-platform North Carolina engage;true;35164;40883;35164;40883;46375;55488
13203;true;true;42623;34432;53830;60660;19758;848;District;1080p platforms;12351;72626;Wooden Uzbekistan Sum Tasty Concrete Towels;42021;38805;11312;2020-05-05;2020-05-05;35449;false;18356;action-items;true;10950;34022;10950;34022;47622;62458
69247;false;true;94657;86729;33689;29747;22951;57271;salmon SCSI;XML;33904;59330;Guyana Dollar SCSI;38921;7562;28691;2020-05-05;2020-05-05;37379;true;69849;1080p bus;true;72072;34377;72072;34377;58908;64503
75872;false;true;90186;15773;88190;4460;94107;90532;action-items Dynamic;Personal Loan Account;49556;83278;withdrawal instruction set enhance;15145;78375;90276;2020-05-05;2020-05-05;78995;false;94072;Frozen;true;4103;88460;4103;88460;1247;25931
82386;true;true;26009;41268;8983;94761;17398;68414;Personal Loan Account;synthesize microchip;7357;17117;Indiana;84250;49096;30476;2020-05-05;2020-05-05;27019;true;95216;Functionality;true;45506;58126;45506;58126;61321;80761
37240;true;true;24576;97445;31432;1159;11368;79760;New Mexico applications;Cambridgeshire;10309;94756;Accounts Architect;55042;27338;93458;2020-05-05;2020-05-05;67751;false;43025;Soft;true;101;59136;101;59136;18580;78716
9399;false;false;97952;60690;57213;98753;36088;32761;Auto Loan Account;index;73843;64268;Group;8860;18947;4209;2020-05-05;2020-05-05;59648;true;43486;generate Toys;true;42728;128;42728;128;63960;4299
58603;false;false;1891;75988;68641;44458;40679;53098;deposit SMS;Tools;12773;50077;District payment Senior;296;33904;42558;2020-05-06;2020-05-05;68110;true;8960;Berkshire Handcrafted;false;73798;96543;73798;96543;4478;29628
