id;deleted;enabled;gioi_han_chi_dinh;phan_theo_gio_tinh;ten_hien_thi;ma_dung_chung;ma_noi_bo;pham_vi_chi_dinh;don_vi_tinh;don_gia_benh_vien;dot_thay_doi_ma_dich_vu_id
70502;84906;29065;24725;36249;1080p platforms;out-of-the-box Streamlined Industrial;Mouse alarm purple;91786;compressing Pizza port;64943;86018
46498;41706;21215;79846;11789;XML;Trinidad and Tobago overriding Assistant;Malawi invoice Taka;43800;Flat Concrete;16399;10042
19181;9469;94909;99084;52605;Personal Loan Account;Implementation card;Auto Loan Account Music Team-oriented;65495;facilitate Refined Fresh Chair;51614;38876
46944;14929;60900;31198;29645;synthesize microchip;parsing;Yuan Renminbi;4122;Dynamic web-readiness;93295;34852
6748;77500;66386;75480;58276;Cambridgeshire;Re-contextualized Oval Bedfordshire;generating;42382;port transmit web services;15552;61930
52907;29324;30994;77168;58578;index;Cambridgeshire;Motorway Tuna Savings Account;14077;Wooden;26731;77114
72456;94396;80774;14518;17837;transitional drive Tajikistan;enable driver Shirt;Home Loan Account;49501;Florida;2939;55944
60377;12906;14706;22131;19752;Colombian Peso Unidad de Valor Real;pixel;next-generation transparent Jewelery;6925;Lights Object-based;76892;82452
41606;25346;6432;26205;10130;Falkland Islands Pound;deposit plug-and-play backing up;Auto Loan Account;39210;action-items modular;83255;57051
96989;22571;14257;31075;69854;navigate collaborative Bedfordshire;e-markets Generic Soft Car Unbranded Rubber Computer;Graphical User Interface Engineer Assurance;22889;Table Auto Loan Account UIC-Franc;95150;98555
