id;dot_tuong_ap_dung;ghi_chu;ngay_ap_dung;ten
1;23115;Valley Home Loan Account;2020-06-07;Mississippi
2;93292;Auto Loan Account experiences;2020-06-07;Car solid state
3;50572;Belize process improvement Village;2020-06-07;world-class Auto Loan Account
4;99168;compress Steel Concrete;2020-06-07;cohesive copy Progressive
5;61480;Strategist action-items;2020-06-07;magenta Up-sized Soft
6;70922;out-of-the-box maroon;2020-06-07;Ohio connecting
7;60478;Synchronised Checking Account;2020-06-07;back-end
8;29238;Associate;2020-06-07;Buckinghamshire out-of-the-box Functionality
9;53732;Grocery Nakfa;2020-06-07;quantifying calculating
10;1375;Cliff copy Directives;2020-06-07;incubate bottom-line
