id;ten;mo_ta;jhi_enable;uu_tien;ma_phan_loai;don_vi_id
1;Money Market Account;encryption;true;27866;Berkshire;1
2;Technician implement connect;HTTP;true;87345;Research sexy;2
3;Bedfordshire Cambridgeshire;discrete cyan United States of America;true;97154;Total optimal;3
4;Strategist;Small Cotton Hat Organic;true;42155;Gloves Rubber New Caledonia;4
5;Junctions demand-driven;National auxiliary;false;31334;cross-platform paradigms;5
6;Louisiana Wisconsin;Baby Programmable Checking Account;false;72667;Shirt;6
7;array Unbranded Frozen Bike Poland;Towels program optical;true;12084;Table;7
8;Configurable;Refined unleash;false;1359;Global;8
9;target Swiss Franc Dynamic;relationships secured line Books;true;82997;Global TCP;9
10;Ergonomic;model flexibility;false;86858;Computers Liaison Azerbaijan;10
