id;cap;guess_phrase;ten;ten_khong_dau;tinh_thanh_pho_id
1;Tasty payment;Kip blue;SAS Liaison bus;parsing Computers Iowa;1
2;Future;USB Small Rubber Mouse synthesize;transmit;driver back up;2
3;Squares Junction Frozen;Multi-tiered Configuration Associate;Internal Mobility;Soft Sports Senior;3
4;Euro alarm;purple Fall;Metrics microchip;ADP;4
5;analyzing;Louisiana;Gorgeous Intelligent optimal;Granite Handmade Rubber Tuna;5
6;Bedfordshire Kansas Ergonomic;front-end bleeding-edge;portal Mouse generate;withdrawal;6
7;communities;CSS;Executive B2C;withdrawal;7
8;Home Auto Loan Account;connect;Gorgeous Rustic Balboa US Dollar;synergies radical;8
9;mesh Concrete Sports;Home Loan Account Dale payment;pixel;Handcrafted Plastic Gloves;9
10;parse Handcrafted Cotton Ball;Intelligent bricks-and-clicks Money Market Account;Keyboard;Mouse backing up;10
