id;can_duoi_nam;can_duoi_nu;can_tren_nam;can_tren_nu;chi_so_binh_thuong_nam;chi_so_max;chi_so_min;cong_thuc;deleted;do_pha_loang;don_gia_benh_vien;don_vi_tinh;enabled;gioi_han_chi_dinh;ket_qua_bat_thuong;ma_dung_chung;ket_qua_mac_dinh;pham_vi_chi_dinh;phan_theo_gioi_t_inh;so_le_lam_tron;so_luong_thuc_hien;ten;ten_hien_thi;ma_noi_bo;don_vi_id;dot_ma_id;loaixn_id
1;72159;14118;25517;411;invoice;44269;95281;Chair;false;context-se;35130;wireless throughput;true;77987;Credit Card Account Future;Assimilated Centralized Architect;redundant;true;false;49049;82524;Checking Account;Buckinghamshire;engage needs-based payment;1;1;1
2;40893;91514;99086;89131;best-of-breed infomediaries;29220;33566;utilisation;true;Cape Verde;34422;PCI Handmade Frozen Salad;false;53533;help-desk Configuration experiences;Massachusetts;Credit Card Account;false;false;51760;90523;Clothing;violet Saudi Arabia;firewall yellow monetize;2;2;2
3;85266;41618;50647;1797;Intelligent;63880;58985;microchip virtual Michigan;true;Italy Bela;90739;leverage New Zealand Dollar;false;74674;bluetooth;CSS yellow Iceland Krona;cohesive Berkshire United States of America;false;false;35659;42009;navigate Tasty yellow;Bedfordshire;Re-engineered Savings Account Soft;3;3;3
4;28307;88409;96330;35100;Mouse;1480;93769;Gambia;true;index bott;48310;Integration deliver Mississipp;true;60010;Borders;black navigate;best-of-breed;true;true;32944;77615;withdrawal;port Avon real-time;Massachusetts Optimization Steel;4;4;4
5;34441;11517;13310;4837;copying grow Christmas Island;84574;2444;Investor;true;Program Fa;86848;Cotton;true;53358;Nebraska navigating;Exclusive Industrial;Savings Account;true;false;88119;70411;content;Algerian Dinar;throughput wireless sensor;5;5;5
6;37357;89815;70607;34319;hack leading edge channels;35401;21200;Fantastic Wooden Towels;false;partnershi;90216;mission-critical bluetooth;false;17907;real-time Cambridgeshire Accounts;quantifying;product;true;false;27403;34528;copying Pants;24/7 salmon Indiana;impactful;6;6;6
7;50094;16048;82898;24782;Assurance mobile;37262;15026;Inverse;true;Directives;16246;secured line Licensed Unions;true;58447;cross-platform;Berkshire;alarm;true;false;85695;32646;North Dakota Cross-platform Creative;Investment Account;Bahrain;7;7;7
8;64204;73450;12466;1550;Arizona;75504;23898;architecture RAM Rhode Island;false;invoice pi;49312;Cambridgeshire;true;73838;redundant;Awesome Frozen Shirt infrastructures;Chief;false;true;58717;94660;back up Armenia Alabama;Designer generating withdrawal;syndicate Syrian Pound;8;8;8
9;66693;23361;93194;55294;Directives Missouri;98732;21075;programming;true;vertical P;63343;XML;true;64816;deposit navigating Functionality;forecast;Direct;false;false;417;22243;ROI Handcrafted;neural synergize withdrawal;Customer-focused silver Music;9;9;9
10;84337;93411;60321;97913;Small Christmas Island;50075;44914;lime protocol;true;systematic;55786;Virtual portal;false;77315;Garden hierarchy;Administrator deposit;override Tonga;false;false;85331;32000;methodologies;database;Accountability Wisconsin time-frame;10;10;10
