{
  "fluentMethods": true,
  "clientRootFolder": "khamchuabenh",
  "fields": [
    {
      "fieldName": "ten",
      "javadoc": "Tên thủ thuật phẫu thuật",
      "fieldType": "String",
      "fieldValidateRules": [
        "maxlength"
      ],
      "fieldValidateRulesMaxlength": "500"
    },
    {
      "fieldName": "moTa",
      "javadoc": "Mô tả loại thủ thuật phẫu thuật",
      "fieldType": "String",
      "fieldValidateRules": [
        "maxlength"
      ],
      "fieldValidateRulesMaxlength": "500"
    },
    {
      "fieldName": "enable",
      "javadoc": "Trạng thái có hiệu lực: 1: Có hiệu lực. 0: không có hiệu lực",
      "fieldType": "Boolean"
    },
    {
      "fieldName": "uuTien",
      "javadoc": "Số càng nhỏ thì độ ưu tiên lớn",
      "fieldType": "Integer",
      "fieldValidateRules": [
        "required"
      ]
    },
    {
      "fieldName": "maPhanLoai",
      "javadoc": "Tên loại nhỏ hơn chẩn đoán hình ảnh",
      "fieldType": "String",
      "fieldValidateRules": [
        "maxlength"
      ],
      "fieldValidateRulesMaxlength": "500"
    }
  ],
  "relationships": [
    {
      "relationshipType": "many-to-one",
      "otherEntityName": "donVi",
      "otherEntityRelationshipName": "loaittpt",
      "relationshipValidateRules": "required",
      "relationshipName": "donVi",
      "otherEntityField": "id"
    }
  ],
  "changelogDate": "20200506034700",
  "entityTableName": "loai_thu_thuat_phau_thuat",
  "dto": "mapstruct",
  "pagination": "pagination",
  "service": "serviceImpl",
  "jpaMetamodelFiltering": true,
  "fluentMethods": true,
  "readOnly": false,
  "embedded": false,
  "clientRootFolder": "khamchuabenh",
  "applications": [
    "khamchuabenh"
  ],
  "microserviceName": "khamchuabenh"
}
