{
  "name": "Phong",
  "fields": [
    {
      "fieldName": "enabled",
      "javadoc": "Trạng thái: 1: Còn hiệu lực. 0 Hết hiệu lực",
      "fieldType": "Boolean",
      "fieldValidateRules": ["required"]
    },
    {
      "fieldName": "kyHieu",
      "javadoc": "Ký hiệu phòng",
      "fieldType": "String",
      "fieldValidateRules": ["required", "maxlength"],
      "fieldValidateRulesMaxlength": "500"
    },
    {
      "fieldName": "loai",
      "javadoc": "Loại phòng",
      "fieldType": "BigDecimal",
      "fieldValidateRules": ["required"]
    },
    {
      "fieldName": "phone",
      "javadoc": "Số điện thoại của phòng",
      "fieldType": "String",
      "fieldValidateRules": ["maxlength"],
      "fieldValidateRulesMaxlength": "15"
    },
    {
      "fieldName": "ten",
      "javadoc": "Tên phòng",
      "fieldType": "String",
      "fieldValidateRules": ["required", "maxlength"],
      "fieldValidateRulesMaxlength": "500"
    },
    {
      "fieldName": "viTri",
      "javadoc": "Vị trí phòng",
      "fieldType": "String",
      "fieldValidateRules": ["maxlength"],
      "fieldValidateRulesMaxlength": "500"
    }
  ],
  "relationships": [
    {
      "relationshipType": "many-to-one",
      "otherEntityName": "khoa",
      "otherEntityRelationshipName": "phong",
      "relationshipValidateRules": "required",
      "javadoc": "Mã khoa",
      "relationshipName": "khoa",
      "otherEntityField": "id"
    }
  ],
  "changelogDate": "20200506071700",
  "entityTableName": "phong",
  "dto": "mapstruct",
  "pagination": "pagination",
  "service": "serviceImpl",
  "jpaMetamodelFiltering": true,
  "fluentMethods": true,
  "readOnly": false,
  "embedded": false,
  "clientRootFolder": "khamchuabenh",
  "applications": ["khamchuabenh"],
  "microserviceName": "khamchuabenh"
}
