{
  "fluentMethods": true,
  "clientRootFolder": "khamchuabenh",
  "fields": [
    {
      "fieldName": "deleted",
      "javadoc": "Trạng thái xóa bỏ của dòng dữ liệu. \\r\\n1: Đã xóa. \\r\\n0: Còn hiệu lực.",
      "fieldType": "Boolean",
      "fieldValidateRules": [
        "required"
      ]
    },
    {
      "fieldName": "dichVuYeuCau",
      "javadoc": "Trạng thái dịch vụ theo yêu cầu: \\r\\n1: Dịch vụ theo yêu cầu. \\r\\n0: Dịch vụ bình thường. ",
      "fieldType": "Boolean",
      "fieldValidateRules": [
        "required"
      ]
    },
    {
      "fieldName": "donGiaBenhVien",
      "javadoc": "Đơn giá bệnh viện",
      "fieldType": "BigDecimal",
      "fieldValidateRules": [
        "required"
      ]
    },
    {
      "fieldName": "enabled",
      "javadoc": "Trạng thái có hiệu lực của dịch vụ: \\r\\n1: Còn hiệu lực. \\r\\n0: Đã ẩn.",
      "fieldType": "Boolean",
      "fieldValidateRules": [
        "required"
      ]
    },
    {
      "fieldName": "goiHanChiDinh",
      "javadoc": "Số lượng giới hạn của một chỉ định",
      "fieldType": "BigDecimal"
    },
    {
      "fieldName": "phamViChiDinh",
      "javadoc": "Trạng thái phạm vi của chỉ định:\\r\\n0: Chỉ có thu phí. \\r\\n1: Có cả BHYT và thu phí",
      "fieldType": "Boolean",
      "fieldValidateRules": [
        "required"
      ]
    },
    {
      "fieldName": "phanTheoGioiTinh",
      "javadoc": "Phân biệt theo giới tính: \\r\\n0: Nữ. \\r\\n1: Nam. \\r\\n2: Không phân biệt giới tính. \\r\\n",
      "fieldType": "Integer",
      "fieldValidateRules": ["required"]
    },
    {
      "fieldName": "ten",
      "javadoc": "Tên của chỉ định",
      "fieldType": "String",
      "fieldValidateRules": [
        "maxlength"
      ],
      "fieldValidateRulesMaxlength": "500"
    },
    {
      "fieldName": "tenHienThi",
      "fieldType": "String",
      "javadoc": "Tên hiển thị của chỉ định",
      "fieldValidateRules": [
        "maxlength"
      ],
      "fieldValidateRulesMaxlength": "500"
    },
    {
      "fieldName": "maNoiBo",
      "javadoc": "Mã nội bộ",
      "fieldType": "String",
      "fieldValidateRules": ["maxlength"],
      "fieldValidateRulesMaxlength": "255"
    },
    {
      "fieldName": "maDungChung",
      "javadoc": "Mã dùng chung",
      "fieldType": "String",
      "fieldValidateRules": ["maxlength"],
      "fieldValidateRulesMaxlength": "45"
    }
  ],
  "relationships": [
    {
      "relationshipType": "many-to-one",
      "otherEntityName": "donVi",
      "otherEntityRelationshipName": "ttpt",
      "relationshipValidateRules": "required",
      "relationshipName": "donVi",
      "otherEntityField": "id"
    },
    {
      "relationshipType": "many-to-one",
      "otherEntityName": "dotThayDoiMaDichVu",
      "otherEntityRelationshipName": "ttpt",
      "relationshipValidateRules": "required",
      "relationshipName": "dotMa",
      "otherEntityField": "id"
    },
    {
      "relationshipType": "many-to-one",
      "otherEntityName": "loaiThuThuatPhauThuat",
      "otherEntityRelationshipName": "ttpt",
      "relationshipValidateRules": "required",
      "relationshipName": "loaittpt",
      "otherEntityField": "id"
    }
  ],
  "changelogDate": "20200506034700",
  "entityTableName": "thu_thuat_phau_thuat",
  "dto": "mapstruct",
  "pagination": "pagination",
  "service": "serviceImpl",
  "jpaMetamodelFiltering": true,
  "fluentMethods": true,
  "readOnly": false,
  "embedded": false,
  "clientRootFolder": "khamchuabenh",
  "applications": [
    "khamchuabenh"
  ],
  "microserviceName": "khamchuabenh"
}
